139797 524132 470
820282 836091 419
551919 393887 470
443388 77263 449
648307 827710 504
952839 598639 525
509870 868228 525
786375 780384 375
704022 217475 509
616753 909858 525
609893 361595 470
628030 931567 525
976607 820468 525
705916 145720 509
515319 360302 470
927319 313064 525
221205 535544 470
707919 355113 509
423361 111066 449
846416 726586 525
268579 756359 509
490286 580811 470
459213 900562 525
740220 49046 509
585870 790485 509
209090 311124 443
322411 603329 470
356133 647499 509
83752 931639 525
828216 331757 509
486229 80100 449
357386 47800 443
95770 392099 443
987575 497405 525
500905 258552 449
533200 1520 470
705636 552309 509
208525 192620 373
201453 978527 525
309049 345645 384
848274 234716 525
674800 501474 509
870880 933744 476
420317 299594 449
860381 958876 507
77217 355565 443
659545 292050 509
862633 94083 525
406297 384843 436
260451 179876 443
811481 826217 450
482146 76373 449
954964 401895 525
660145 806035 504
498436 637341 509
819050 686419 504
233749 569602 470
768657 672500 504
312422 802850 509
67617 948474 525
334915 868294 525
117702 581202 470
717560 531180 509
266025 372656 441
400528 965941 525
516194 530174 439
11984 655118 509
79274 411022 449
61566 458482 449
531546 391705 470
600611 545879 452
788452 862679 525
57032 790636 509
452730 455539 369
629534 779911 504
349648 872464 525
708833 814230 468
223359 106662 386
282835 140492 443
635786 417714 509
178214 191062 365
83093 157202 383
292590 786130 509
224660 427676 449
679534 97346 509
905630 601970 525
462854 667803 509
346461 930070 525
77156 936758 525
471577 817181 509
258403 527071 470
854058 869345 419
541234 19122 470
164477 471883 449
759017 57093 509
329342 491163 449
188185 411763 449
828274 671619 504
530081 58578 470
688883 437632 509
881620 420562 525
774496 103869 509
210288 672696 509
902209 947824 507
619516 407738 470
177441 204783 365
867233 22993 525
685969 808117 504
183413 903397 525
345641 616754 470
421660 848327 525
287270 946879 525
975421 217870 525
607896 456351 470
691160 958871 525
719470 818030 468
218805 11879 386
802139 162145 509
854102 597197 525
63703 968022 525
947943 531555 525
605446 941968 525
384560 36490 443
699423 430754 509
463431 465351 338
193430 89127 383
759041 997908 525
577240 844962 525
178123 629863 509
967346 687098 525
485777 719133 509
897340 438616 525
29871 941608 525
337145 472255 449
257370 756130 509
806765 274850 509
886774 381783 525
798791 874140 525
277575 850157 525
978829 403960 525
620683 911031 525
794109 502817 509
62989 442054 449
187961 815997 509
774778 541255 509
91436 602842 470
270445 665838 509
243251 338496 407
969 21505 279
675381 243379 509
350876 903638 525
893977 873858 445
692918 844973 525
383948 263986 441
80443 234004 443
570405 620932 447
490468 534121 470
781323 245618 509
269696 355619 441
73129 175312 383
581238 410980 470
4594 26357 282
201562 818441 509
574245 652894 509
975189 309652 525
572697 531425 452
598930 644318 509
543633 231215 470
177934 938036 525
395853 936990 525
172626 669089 509
463628 753113 509
938563 845820 476
473797 437305 444
50544 188224 383
445369 287234 449
997783 205771 525
21064 134710 354
638730 738012 504
110094 789912 509
12136 865338 525
7616 822039 509
715188 94352 509
348677 262969 441
80093 375623 443
353104 676936 509
807198 821153 450
822675 51953 509
545789 954731 525
263030 137645 443
152922 950394 525
320181 179347 443
6194 592546 470
445098 479779 444
798079 625869 509
329742 857286 525
697492 753947 504
194033 863610 525
628477 792640 504
445650 574306 470
686453 387513 509
583157 871416 525
389172 264248 441
467871 400664 449
542584 196739 470
250987 804404 509
991047 749688 525
309886 406752 441
416825 380790 449
521153 258750 470
655583 672207 442
77753 339145 443
702592 301836 509
843910 750282 525
698610 861932 525
933641 948805 507
704930 785993 468
797520 407342 509
3814 454373 449
607131 615979 447
993572 14894 525
137797 1355 354
486784 576831 470
667572 166322 509
365670 214935 443
634087 834634 504
100382 654738 509
920759 22768 525
593993 601221 372
679968 254957 509
182210 419962 449
543223 87698 470
386366 283240 441
916948 816448 525
194968 953108 525
817410 999913 525
232136 89297 443
359449 356283 379
160469 341850 443
581038 660960 509
61436 516749 470
759352 506769 509
338103 787319 509
753899 175341 509
893043 265058 525
198386 412309 449
948529 240582 525
555406 599127 434
896599 58703 525
146639 670804 509
